R语言学习笔记 - 7 Seurat细胞分群官方教程
…
Find markers for every cluster compared to all remaining cells, report only the positive ones：

pbmc.markers <- FindAllMarkers(pbmc, only.pos = TRUE)
library(dplyr)
pbmc.markers %>%
    group_by(cluster) %>%
    filter(avg_log2FC > 1)

# A tibble: 7,024 × 7
# Groups:   cluster [9]
       p_val avg_log2FC pct.1 pct.2 p_val_adj cluster gene     
       <dbl>      <dbl> <dbl> <dbl>     <dbl> <fct>   <chr>    
 1 5.32e-114       1.19 0.912 0.591 7.29e-110 0       LDHB     
 2 1.31e- 83       2.35 0.439 0.11  1.79e- 79 0       CCR7     
 3 2.61e- 78       1.06 0.85  0.403 3.58e- 74 0       CD3D     
 4 5.89e- 55       1.03 0.731 0.398 8.07e- 51 0       CD3E     
 5 3.91e- 50       2.11 0.338 0.104 5.36e- 46 0       LEF1     
 6 2.53e- 47       1.23 0.624 0.36  3.47e- 43 0       NOSIP    
 7 5.11e- 46       2.04 0.335 0.109 7.01e- 42 0       PRKCQ-AS1
 8 5.49e- 43       1.51 0.438 0.186 7.52e- 39 0       PIK3IP1  
 9 9.17e- 41       2.73 0.199 0.04  1.26e- 36 0       FHIT     
10 1.26e- 33       1.32 0.39  0.177 1.72e- 29 0       TCF7     
# ℹ 7,014 more rows
…
