R语言学习笔记：从数据清洗到高级统计学和生物信息学 - 基于dplyr包的数据处理
…
1 介绍

dplyr包是tidyverse的核心包之一，为数据处理提供了一系列方便快捷的函数。本章将以nycflights13包中的flights案例数据来介绍基于dplyr包的数据处理语法。该数据集包含 2013 年从纽约市起飞的所有 336,776 次航班的信息。

library(dplyr)

data(flights, package = "nycflights13")
flights

# A tibble: 336,776 × 19
    year month   day dep_time sched_dep_time dep_delay arr_time sched_arr_time
   <int> <int> <int>    <int>          <int>     <dbl>    <int>          <int>
 1  2013     1     1      517            515         2      830            819
 2  2013     1     1      533            529         4      850            830
 3  2013     1     1      542            540         2      923            850
 4  2013     1     1      544            545        -1     1004           1022
 5  2013     1     1      554            600        -6      812            837
 6  2013     1     1      554            558        -4      740            728
 7  2013     1     1      555            600        -5      913            854
 8  2013     1     1      557            600        -3      709            723
 9  2013     1     1      557            600        -3      838            846
10  2013     1     1      558            600        -2      753            745
# ℹ 336,766 more rows
# ℹ 11 more variables: arr_delay <dbl>, carrier <chr>, flight <int>,
#   tailnum <chr>, origin <chr>, dest <chr>, air_time <dbl>, distance <dbl>,
#   hour <dbl>, minute <dbl>, time_hour <dttm>
…
用于提取满足某（些）条件的行，基本等同于subset()。

# 查找所有晚点 120 分钟（两小时）以上起飞的航班：
filter(flights, dep_delay > 120)

# A tibble: 9,723 × 19
    year month   day dep_time sched_dep_time dep_delay arr_time sched_arr_time
   <int> <int> <int>    <int>          <int>     <dbl>    <int>          <int>
 1  2013     1     1      848           1835       853     1001           1950
 2  2013     1     1      957            733       144     1056            853
 3  2013     1     1     1114            900       134     1447           1222
 4  2013     1     1     1540           1338       122     2020           1825
 5  2013     1     1     1815           1325       290     2120           1542
 6  2013     1     1     1842           1422       260     1958           1535
 7  2013     1     1     1856           1645       131     2212           2005
 8  2013     1     1     1934           1725       129     2126           1855
 9  2013     1     1     1938           1703       155     2109           1823
10  2013     1     1     1942           1705       157     2124           1830
# ℹ 9,713 more rows
# ℹ 11 more variables: arr_delay <dbl>, carrier <chr>, flight <int>,
#   tailnum <chr>, origin <chr>, dest <chr>, air_time <dbl>, distance <dbl>,
#   hour <dbl>, minute <dbl>, time_hour <dttm>

# 查找一月或二月起飞的航班
filter(flights, month %in% c(1, 2))

# A tibble: 51,955 × 19
    year month   day dep_time sched_dep_time dep_delay arr_time sched_arr_time
   <int> <int> <int>    <int>          <int>     <dbl>    <int>          <int>
 1  2013     1     1      517            515         2      830            819
 2  2013     1     1      533            529         4      850            830
 3  2013     1     1      542            540         2      923            850
 4  2013     1     1      544            545        -1     1004           1022
 5  2013     1     1      554            600        -6      812            837
 6  2013     1     1      554            558        -4      740            728
 7  2013     1     1      555            600        -5      913            854
 8  2013     1     1      557            600        -3      709            723
 9  2013     1     1      557            600        -3      838            846
10  2013     1     1      558            600        -2      753            745
# ℹ 51,945 more rows
# ℹ 11 more variables: arr_delay <dbl>, carrier <chr>, flight <int>,
#   tailnum <chr>, origin <chr>, dest <chr>, air_time <dbl>, distance <dbl>,
#   hour <dbl>, minute <dbl>, time_hour <dttm>

3.2 arrange()

排序，以某列为依据对行进行排序（在前面的数据处理基本函数一章中已涉及该函数）。对应的功能在base包中是order()函数。如果提供的列名不止一个，则依次根据提供的列的顺序对数据进行排序。例如，下面的代码按航班出发时间排序，出发时间分布在四列中。我们首先得到最早的年份，然后在一年内得到最早的月份，依此类推。

arrange(flights, year, month, day, dep_time)

# A tibble: 336,776 × 19
    year month   day dep_time sched_dep_time dep_delay arr_time sched_arr_time
   <int> <int> <int>    <int>          <int>     <dbl>    <int>          <int>
 1  2013     1     1      517            515         2      830            819
 2  2013     1     1      533            529         4      850            830
 3  2013     1     1      542            540         2      923            850
 4  2013     1     1      544            545        -1     1004           1022
 5  2013     1     1      554            600        -6      812            837
 6  2013     1     1      554            558        -4      740            728
 7  2013     1     1      555            600        -5      913            854
 8  2013     1     1      557            600        -3      709            723
 9  2013     1     1      557            600        -3      838            846
10  2013     1     1      558            600        -2      753            745
# ℹ 336,766 more rows
# ℹ 11 more variables: arr_delay <dbl>, carrier <chr>, flight <int>,
#   tailnum <chr>, origin <chr>, dest <chr>, air_time <dbl>, distance <dbl>,
#   hour <dbl>, minute <dbl>, time_hour <dttm>

可以加上desc()实现降序排列：

arrange(flights, desc(dep_delay))

# A tibble: 336,776 × 19
    year month   day dep_time sched_dep_time dep_delay arr_time sched_arr_time
   <int> <int> <int>    <int>          <int>     <dbl>    <int>          <int>
 1  2013     1     9      641            900      1301     1242           1530
 2  2013     6    15     1432           1935      1137     1607           2120
 3  2013     1    10     1121           1635      1126     1239           1810
 4  2013     9    20     1139           1845      1014     1457           2210
 5  2013     7    22      845           1600      1005     1044           1815
 6  2013     4    10     1100           1900       960     1342           2211
 7  2013     3    17     2321            810       911      135           1020
 8  2013     6    27      959           1900       899     1236           2226
 9  2013     7    22     2257            759       898      121           1026
10  2013    12     5      756           1700       896     1058           2020
# ℹ 336,766 more rows
# ℹ 11 more variables: arr_delay <dbl>, carrier <chr>, flight <int>,
#   tailnum <chr>, origin <chr>, dest <chr>, air_time <dbl>, distance <dbl>,
#   hour <dbl>, minute <dbl>, time_hour <dttm>
…
查找数据集中所有唯一的行。

# 移除所有完全相同的行
distinct(flights)

# A tibble: 336,776 × 19
    year month   day dep_time sched_dep_time dep_delay arr_time sched_arr_time
   <int> <int> <int>    <int>          <int>     <dbl>    <int>          <int>
 1  2013     1     1      517            515         2      830            819
 2  2013     1     1      533            529         4      850            830
 3  2013     1     1      542            540         2      923            850
 4  2013     1     1      544            545        -1     1004           1022
 5  2013     1     1      554            600        -6      812            837
 6  2013     1     1      554            558        -4      740            728
 7  2013     1     1      555            600        -5      913            854
 8  2013     1     1      557            600        -3      709            723
 9  2013     1     1      557            600        -3      838            846
10  2013     1     1      558            600        -2      753            745
# ℹ 336,766 more rows
# ℹ 11 more variables: arr_delay <dbl>, carrier <chr>, flight <int>,
#   tailnum <chr>, origin <chr>, dest <chr>, air_time <dbl>, distance <dbl>,
#   hour <dbl>, minute <dbl>, time_hour <dttm>

# 查找所有唯一的出发地和目的地配对
distinct(flights, origin, dest)

# A tibble: 224 × 2
   origin dest 
   <chr>  <chr>
 1 EWR    IAH  
 2 LGA    IAH  
 3 JFK    MIA  
 4 JFK    BQN  
 5 LGA    ATL  
 6 EWR    ORD  
 7 EWR    FLL  
 8 LGA    IAD  
 9 JFK    MCO  
10 LGA    ORD  
# ℹ 214 more rows

可以看到，如果根据某列或某几列为依据来查找非重复值，那么默认只输出这几列，我们可以通过加入.keep_all = TRUE参数来保留其他列。.表示 .keep_all 是函数的一个参数，而不另一个变量的名称。

distinct(flights, origin, dest, .keep_all = TRUE)

# A tibble: 224 × 19
    year month   day dep_time sched_dep_time dep_delay arr_time sched_arr_time
   <int> <int> <int>    <int>          <int>     <dbl>    <int>          <int>
 1  2013     1     1      517            515         2      830            819
 2  2013     1     1      533            529         4      850            830
 3  2013     1     1      542            540         2      923            850
 4  2013     1     1      544            545        -1     1004           1022
 5  2013     1     1      554            600        -6      812            837
 6  2013     1     1      554            558        -4      740            728
 7  2013     1     1      555            600        -5      913            854
 8  2013     1     1      557            600        -3      709            723
 9  2013     1     1      557            600        -3      838            846
10  2013     1     1      558            600        -2      753            745
# ℹ 214 more rows
# ℹ 11 more variables: arr_delay <dbl>, carrier <chr>, flight <int>,
#   tailnum <chr>, origin <chr>, dest <chr>, air_time <dbl>, distance <dbl>,
#   hour <dbl>, minute <dbl>, time_hour <dttm>

可以发现所有这些不同的航班都是在 1 月 1 日，这绝非巧合：distinct() 会在数据集中找到唯一值第一次出现的那一行，并舍弃其他行。

如果要得到每种出发地和目的地配对出现的次数，可以将 distinct() 换成 count()，并可使用 sort = TRUE 参数按出现次数降序排列。count()同样来自dplyr包，用于快速统计一个或多个变量的唯一值的出现次数。

count(flights, origin, dest, sort = TRUE)

# A tibble: 224 × 3
   origin dest      n
   <chr>  <chr> <int>
 1 JFK    LAX   11262
 2 LGA    ATL   10263
 3 LGA    ORD    8857
 4 JFK    SFO    8204
 5 LGA    CLT    6168
 6 EWR    ORD    6100
 7 JFK    BOS    5898
 8 LGA    MIA    5781
 9 JFK    MCO    5464
10 EWR    BOS    5327
# ℹ 214 more rows
…
mutate()的作用是根据现有列计算并添加新列。

# 计算延误航班在空中停留的时间（gain）以及平均速度（speed，英里/小时）：
mutate(
  flights,
  gain = dep_delay - arr_delay,
  speed = distance / air_time * 60
)

# A tibble: 336,776 × 21
    year month   day dep_time sched_dep_time dep_delay arr_time sched_arr_time
   <int> <int> <int>    <int>          <int>     <dbl>    <int>          <int>
 1  2013     1     1      517            515         2      830            819
 2  2013     1     1      533            529         4      850            830
 3  2013     1     1      542            540         2      923            850
 4  2013     1     1      544            545        -1     1004           1022
 5  2013     1     1      554            600        -6      812            837
 6  2013     1     1      554            558        -4      740            728
 7  2013     1     1      555            600        -5      913            854
 8  2013     1     1      557            600        -3      709            723
 9  2013     1     1      557            600        -3      838            846
10  2013     1     1      558            600        -2      753            745
# ℹ 336,766 more rows
# ℹ 13 more variables: arr_delay <dbl>, carrier <chr>, flight <int>,
#   tailnum <chr>, origin <chr>, dest <chr>, air_time <dbl>, distance <dbl>,
#   hour <dbl>, minute <dbl>, time_hour <dttm>, gain <dbl>, speed <dbl>

默认情况下，mutate() 会在数据集的最右侧添加计算后的新列，因此很难看到这里发生了什么。我们可以使用 .before 参数将变量添加到数据集的左侧：

mutate(
  flights,
  gain = dep_delay - arr_delay,
  speed = distance / air_time * 60,
  .before = 1 # 添加到第一列
)

# A tibble: 336,776 × 21
    gain speed  year month   day dep_time sched_dep_time dep_delay arr_time
   <dbl> <dbl> <int> <int> <int>    <int>          <int>     <dbl>    <int>
 1    -9  370.  2013     1     1      517            515         2      830
 2   -16  374.  2013     1     1      533            529         4      850
 3   -31  408.  2013     1     1      542            540         2      923
 4    17  517.  2013     1     1      544            545        -1     1004
 5    19  394.  2013     1     1      554            600        -6      812
 6   -16  288.  2013     1     1      554            558        -4      740
 7   -24  404.  2013     1     1      555            600        -5      913
 8    11  259.  2013     1     1      557            600        -3      709
 9     5  405.  2013     1     1      557            600        -3      838
10   -10  319.  2013     1     1      558            600        -2      753
# ℹ 336,766 more rows
# ℹ 12 more variables: sched_arr_time <int>, arr_delay <dbl>, carrier <chr>,
#   flight <int>, tailnum <chr>, origin <chr>, dest <chr>, air_time <dbl>,
#   distance <dbl>, hour <dbl>, minute <dbl>, time_hour <dttm>

也可以使用 .after 指定新变量应该在哪个变量后添加，在 .before 和 .after 中，都可以使用变量名和列数两种方法指定新变量出现的位置。例如，我们可以在 “day” 之后添加新变量：

mutate(
  flights,
  gain = dep_delay - arr_delay,
  speed = distance / air_time * 60,
  .after = day # 添加到第一列
)

# A tibble: 336,776 × 21
    year month   day  gain speed dep_time sched_dep_time dep_delay arr_time
   <int> <int> <int> <dbl> <dbl>    <int>          <int>     <dbl>    <int>
 1  2013     1     1    -9  370.      517            515         2      830
 2  2013     1     1   -16  374.      533            529         4      850
 3  2013     1     1   -31  408.      542            540         2      923
 4  2013     1     1    17  517.      544            545        -1     1004
 5  2013     1     1    19  394.      554            600        -6      812
 6  2013     1     1   -16  288.      554            558        -4      740
 7  2013     1     1   -24  404.      555            600        -5      913
 8  2013     1     1    11  259.      557            600        -3      709
 9  2013     1     1     5  405.      557            600        -3      838
10  2013     1     1   -10  319.      558            600        -2      753
# ℹ 336,766 more rows
# ℹ 12 more variables: sched_arr_time <int>, arr_delay <dbl>, carrier <chr>,
#   flight <int>, tailnum <chr>, origin <chr>, dest <chr>, air_time <dbl>,
#   distance <dbl>, hour <dbl>, minute <dbl>, time_hour <dttm>
…
.keep = "used"：保留用于计算新变量的旧变量。这可以用于检查我们的新变量是否计算正确，因为它和原始变量一起展示。

.keep = "unused"：保留其他不用于计算新变量的旧变量。

例如，下面的输出将只包含旧变量 “dep_delay”、“arr_delay”、“distance”、“air_time”，以及新变量“gain”、“speed”：

mutate(
  flights,
  gain = dep_delay - arr_delay,
  speed = distance / air_time * 60,
  .keep = "used"
)

# A tibble: 336,776 × 6
   dep_delay arr_delay air_time distance  gain speed
       <dbl>     <dbl>    <dbl>    <dbl> <dbl> <dbl>
 1         2        11      227     1400    -9  370.
 2         4        20      227     1416   -16  374.
 3         2        33      160     1089   -31  408.
 4        -1       -18      183     1576    17  517.
 5        -6       -25      116      762    19  394.
 6        -4        12      150      719   -16  288.
 7        -5        19      158     1065   -24  404.
 8        -3       -14       53      229    11  259.
 9        -3        -8      140      944     5  405.
10        -2         8      138      733   -10  319.
# ℹ 336,766 more rows
…
选择并输出某几列。

# 根据列名选择某几列
select(flights, year, month, day)

# A tibble: 336,776 × 3
    year month   day
   <int> <int> <int>
 1  2013     1     1
 2  2013     1     1
 3  2013     1     1
 4  2013     1     1
 5  2013     1     1
 6  2013     1     1
 7  2013     1     1
 8  2013     1     1
 9  2013     1     1
10  2013     1     1
# ℹ 336,766 more rows

# 选择“year”和“day”及其之间的所有列
select(flights, year:day)

# A tibble: 336,776 × 3
    year month   day
   <int> <int> <int>
 1  2013     1     1
 2  2013     1     1
 3  2013     1     1
 4  2013     1     1
 5  2013     1     1
 6  2013     1     1
 7  2013     1     1
 8  2013     1     1
 9  2013     1     1
10  2013     1     1
# ℹ 336,766 more rows

# 选择不在“year”和“day”及其之间的所有列
select(flights, !year:day)

# A tibble: 336,776 × 16
   dep_time sched_dep_time dep_delay arr_time sched_arr_time arr_delay carrier
      <int>          <int>     <dbl>    <int>          <int>     <dbl> <chr>  
 1      517            515         2      830            819        11 UA     
 2      533            529         4      850            830        20 UA     
 3      542            540         2      923            850        33 AA     
 4      544            545        -1     1004           1022       -18 B6     
 5      554            600        -6      812            837       -25 DL     
 6      554            558        -4      740            728        12 UA     
 7      555            600        -5      913            854        19 B6     
 8      557            600        -3      709            723       -14 EV     
 9      557            600        -3      838            846        -8 B6     
10      558            600        -2      753            745         8 AA     
# ℹ 336,766 more rows
# ℹ 9 more variables: flight <int>, tailnum <chr>, origin <chr>, dest <chr>,
#   air_time <dbl>, distance <dbl>, hour <dbl>, minute <dbl>, time_hour <dttm>

# 选择所有字符型的列
select(flights, where(is.character))

# A tibble: 336,776 × 4
   carrier tailnum origin dest 
   <chr>   <chr>   <chr>  <chr>
 1 UA      N14228  EWR    IAH  
 2 UA      N24211  LGA    IAH  
 3 AA      N619AA  JFK    MIA  
 4 B6      N804JB  JFK    BQN  
 5 DL      N668DN  LGA    ATL  
 6 UA      N39463  EWR    ORD  
 7 B6      N516JB  EWR    FLL  
 8 EV      N829AS  LGA    IAD  
 9 B6      N593JB  JFK    MCO  
10 AA      N3ALAA  LGA    ORD  
# ℹ 336,766 more rows
在select()内有许多经常可以组合使用的函数：

starts_with("abc"): 以特定字符开头的列名.

ends_with("xyz"): 以特定字符结尾的列名.

contains("ijk"): 包含特定字符的列名.

num_range("x", 1:3): 列名x1, x2 和 x3.

可以在选择变量的同时使用 = 对这些变量进行重命名。新变量名在 = 的左侧，旧变量名在右侧（new_name = old_name）：

select(flights, tail_num = tailnum)

# A tibble: 336,776 × 1
   tail_num
   <chr>   
 1 N14228  
 2 N24211  
 3 N619AA  
 4 N804JB  
 5 N668DN  
 6 N39463  
 7 N516JB  
 8 N829AS  
 9 N593JB  
10 N3ALAA  
# ℹ 336,766 more rows

4.3 rename()

重命名列。新变量名在 = 的左侧，旧变量名在右侧。

rename(
  flights, 
  years = year, 
  months = month
  )

# A tibble: 336,776 × 19
   years months   day dep_time sched_dep_time dep_delay arr_time sched_arr_time
   <int>  <int> <int>    <int>          <int>     <dbl>    <int>          <int>
 1  2013      1     1      517            515         2      830            819
 2  2013      1     1      533            529         4      850            830
 3  2013      1     1      542            540         2      923            850
 4  2013      1     1      544            545        -1     1004           1022
 5  2013      1     1      554            600        -6      812            837
 6  2013      1     1      554            558        -4      740            728
 7  2013      1     1      555            600        -5      913            854
 8  2013      1     1      557            600        -3      709            723
 9  2013      1     1      557            600        -3      838            846
10  2013      1     1      558            600        -2      753            745
# ℹ 336,766 more rows
# ℹ 11 more variables: arr_delay <dbl>, carrier <chr>, flight <int>,
#   tailnum <chr>, origin <chr>, dest <chr>, air_time <dbl>, distance <dbl>,
#   hour <dbl>, minute <dbl>, time_hour <dttm>
…
