R语言学习笔记：从数据清洗到高级统计学和生物信息学 - 基于stringr的字符串处理
…
和字符处理密切相关的一个内容是正则表达式（regular expressions），由于这一部分内容较多，我们将在下一章介绍。

1 加载包

library(tidyverse)
library(babynames)

本章用到的案例数据集“babynames”记录了美国婴儿的姓名分布数据。

babynames

# A tibble: 1,924,665 × 5
    year sex   name          n   prop
   <dbl> <chr> <chr>     <int>  <dbl>
 1  1880 F     Mary       7065 0.0724
 2  1880 F     Anna       2604 0.0267
 3  1880 F     Emma       2003 0.0205
 4  1880 F     Elizabeth  1939 0.0199
 5  1880 F     Minnie     1746 0.0179
 6  1880 F     Margaret   1578 0.0162
 7  1880 F     Ida        1472 0.0151
 8  1880 F     Alice      1414 0.0145
 9  1880 F     Bertha     1320 0.0135
10  1880 F     Sarah      1288 0.0132
# ℹ 1,924,655 more rows
…
str_length() 可以返回字符串中每一个字符的长度（空格算一个字符）：

str_length(c("a", "R for data science", NA))

[1]  1 18 NA

下面我们用“babynames”数据集，来演示如何利用 str_length() + count()，来统计婴儿名字长度的分布情况，然后使用 Filter() 来查看最长的名字：

babynames

# A tibble: 1,924,665 × 5
    year sex   name          n   prop
   <dbl> <chr> <chr>     <int>  <dbl>
 1  1880 F     Mary       7065 0.0724
 2  1880 F     Anna       2604 0.0267
 3  1880 F     Emma       2003 0.0205
 4  1880 F     Elizabeth  1939 0.0199
 5  1880 F     Minnie     1746 0.0179
 6  1880 F     Margaret   1578 0.0162
 7  1880 F     Ida        1472 0.0151
 8  1880 F     Alice      1414 0.0145
 9  1880 F     Bertha     1320 0.0135
10  1880 F     Sarah      1288 0.0132
# ℹ 1,924,655 more rows
…
# 查看最长的名字
babynames |> 
  filter(str_length(name) == max(str_length(name))) |> 
  count(name, wt = n, sort = TRUE)

# A tibble: 34 × 2
   name                n
   <chr>           <int>
 1 Franciscojavier   123
 2 Christopherjohn   118
 3 Johnchristopher   118
 4 Christopherjame   108
 5 Christophermich    52
 6 Ryanchristopher    45
 7 Mariadelosangel    28
 8 Jonathanmichael    25
 9 Christianjoseph    22
10 Christopherjose    22
# ℹ 24 more rows
…
