R语言学习笔记：从数据清洗到高级统计学和生物信息学 - 基于tidyr的长/宽数据转换
…
table1中的数据符合@fig-dataset_tidy 中的整洁数据规范。

2 pivot_longer()：转换成长数据

这里我们以billboard数据集为例。该数据记录了 2000 年歌曲在广告牌上的排名情况：

billboard

# A tibble: 317 × 79
   artist     track date.entered   wk1   wk2   wk3   wk4   wk5   wk6   wk7   wk8
   <chr>      <chr> <date>       <dbl> <dbl> <dbl> <dbl> <dbl> <dbl> <dbl> <dbl>
 1 2 Pac      Baby… 2000-02-26      87    82    72    77    87    94    99    NA
 2 2Ge+her    The … 2000-09-02      91    87    92    NA    NA    NA    NA    NA
 3 3 Doors D… Kryp… 2000-04-08      81    70    68    67    66    57    54    53
 4 3 Doors D… Loser 2000-10-21      76    76    72    69    67    65    55    59
 5 504 Boyz   Wobb… 2000-04-15      57    34    25    17    17    31    36    49
 6 98^0       Give… 2000-08-19      51    39    34    26    26    19     2     2
 7 A*Teens    Danc… 2000-07-08      97    97    96    95   100    NA    NA    NA
 8 Aaliyah    I Do… 2000-01-29      84    62    51    41    38    35    35    38
 9 Aaliyah    Try … 2000-03-18      59    53    38    28    21    18    16    14
10 Adams, Yo… Open… 2000-08-26      76    76    74    69    68    67    61    58
# ℹ 307 more rows
# ℹ 68 more variables: wk9 <dbl>, wk10 <dbl>, wk11 <dbl>, wk12 <dbl>,
#   wk13 <dbl>, wk14 <dbl>, wk15 <dbl>, wk16 <dbl>, wk17 <dbl>, wk18 <dbl>,
#   wk19 <dbl>, wk20 <dbl>, wk21 <dbl>, wk22 <dbl>, wk23 <dbl>, wk24 <dbl>,
#   wk25 <dbl>, wk26 <dbl>, wk27 <dbl>, wk28 <dbl>, wk29 <dbl>, wk30 <dbl>,
#   wk31 <dbl>, wk32 <dbl>, wk33 <dbl>, wk34 <dbl>, wk35 <dbl>, wk36 <dbl>,
#   wk37 <dbl>, wk38 <dbl>, wk39 <dbl>, wk40 <dbl>, wk41 <dbl>, wk42 <dbl>, …

在这个数据集中，每个观测（行）都是一首歌曲。前三列（“artist”、“track”和“date.entered”）是描述歌曲的变量。在此之后的76 列（“wk1”-“wk76”）描述了该歌曲在发行后每周的排名信息（仅在进入前100名时记录名次信息）。因此，对于“wk1”-“wk76”中的数据，所有的列名是一个变量（周数），每个单元格值则是另一个变量（每周的排名）。因此，这个数据集是不符合整洁数据的要求的。

下面，我们通过pivot_longer()将该数据转换成一个长数据，使其符合整洁数据：

billboard |> 
  pivot_longer(
    cols = starts_with("wk"), 
    names_to = "week", 
    values_to = "rank"
  )

# A tibble: 24,092 × 5
   artist track                   date.entered week   rank
   <chr>  <chr>                   <date>       <chr> <dbl>
 1 2 Pac  Baby Don't Cry (Keep... 2000-02-26   wk1      87
 2 2 Pac  Baby Don't Cry (Keep... 2000-02-26   wk2      82
 3 2 Pac  Baby Don't Cry (Keep... 2000-02-26   wk3      72
 4 2 Pac  Baby Don't Cry (Keep... 2000-02-26   wk4      77
 5 2 Pac  Baby Don't Cry (Keep... 2000-02-26   wk5      87
 6 2 Pac  Baby Don't Cry (Keep... 2000-02-26   wk6      94
 7 2 Pac  Baby Don't Cry (Keep... 2000-02-26   wk7      99
 8 2 Pac  Baby Don't Cry (Keep... 2000-02-26   wk8      NA
 9 2 Pac  Baby Don't Cry (Keep... 2000-02-26   wk9      NA
10 2 Pac  Baby Don't Cry (Keep... 2000-02-26   wk10     NA
# ℹ 24,082 more rows
…
names_to：转换后的列的列名，即新变量名。这里我们将该变量命名为 “week” 。

values_to：指定单元格值所代表的变量的变量名。我们将该变量命名为 “rank”。⚠️注意”week”和”rank”加了引号。

现在，让我们聚焦生成的长数据。如果一首歌进入前 100 名的时间少于 76 周，会发生什么情况？以 2 Pac 的《Baby Don’t Cry》为例。上面的输出结果表明，这首歌在前 100 名中只停留了 7 周，其余的周数都是缺失值。这些缺失值其实并不代表未知观测值，而是转换后的长数据集的结构迫使它们存在，因此我们可以通过设置 values_drop_na = TRUE 来要求 pivot_longer()去掉它们：

billboard |> 
  pivot_longer(
    cols = starts_with("wk"), 
    names_to = "week", 
    values_to = "rank",
    values_drop_na = TRUE
  )

# A tibble: 5,307 × 5
   artist  track                   date.entered week   rank
   <chr>   <chr>                   <date>       <chr> <dbl>
 1 2 Pac   Baby Don't Cry (Keep... 2000-02-26   wk1      87
 2 2 Pac   Baby Don't Cry (Keep... 2000-02-26   wk2      82
 3 2 Pac   Baby Don't Cry (Keep... 2000-02-26   wk3      72
 4 2 Pac   Baby Don't Cry (Keep... 2000-02-26   wk4      77
 5 2 Pac   Baby Don't Cry (Keep... 2000-02-26   wk5      87
 6 2 Pac   Baby Don't Cry (Keep... 2000-02-26   wk6      94
 7 2 Pac   Baby Don't Cry (Keep... 2000-02-26   wk7      99
 8 2Ge+her The Hardest Part Of ... 2000-09-02   wk1      91
 9 2Ge+her The Hardest Part Of ... 2000-09-02   wk2      87
10 2Ge+her The Hardest Part Of ... 2000-09-02   wk3      92
# ℹ 5,297 more rows
注意到“week”目前为字符型变量，可以通过readr包中的parse_number()将其转换成数值型变量（详见此前章节），便于后续分析：

billboard_longer <- billboard |> 
  pivot_longer(
    cols = starts_with("wk"), 
    names_to = "week", 
    values_to = "rank",
    values_drop_na = TRUE
  ) |> 
  mutate(
    week = parse_number(week)
  )
billboard_longer

# A tibble: 5,307 × 5
   artist  track                   date.entered  week  rank
   <chr>   <chr>                   <date>       <dbl> <dbl>
 1 2 Pac   Baby Don't Cry (Keep... 2000-02-26       1    87
 2 2 Pac   Baby Don't Cry (Keep... 2000-02-26       2    82
 3 2 Pac   Baby Don't Cry (Keep... 2000-02-26       3    72
 4 2 Pac   Baby Don't Cry (Keep... 2000-02-26       4    77
 5 2 Pac   Baby Don't Cry (Keep... 2000-02-26       5    87
 6 2 Pac   Baby Don't Cry (Keep... 2000-02-26       6    94
 7 2 Pac   Baby Don't Cry (Keep... 2000-02-26       7    99
 8 2Ge+her The Hardest Part Of ... 2000-09-02       1    91
 9 2Ge+her The Hardest Part Of ... 2000-09-02       2    87
10 2Ge+her The Hardest Part Of ... 2000-09-02       3    92
# ℹ 5,297 more rows
…
2.2 包含多个变量信息的列名

更具挑战性的情况是，列名中包含了多个变量信息，而我们希望将这些信息分别存储在不同的新变量中。以 who2 数据集为例，该数据集由世界卫生组织收集，记录了肺结核诊断的相关信息：

Table 1: 肺结核病例信息-列名包含多个变量信息

who2

# A tibble: 7,240 × 58
   country      year sp_m_014 sp_m_1524 sp_m_2534 sp_m_3544 sp_m_4554 sp_m_5564
   <chr>       <dbl>    <dbl>     <dbl>     <dbl>     <dbl>     <dbl>     <dbl>
 1 Afghanistan  1980       NA        NA        NA        NA        NA        NA
 2 Afghanistan  1981       NA        NA        NA        NA        NA        NA
 3 Afghanistan  1982       NA        NA        NA        NA        NA        NA
 4 Afghanistan  1983       NA        NA        NA        NA        NA        NA
 5 Afghanistan  1984       NA        NA        NA        NA        NA        NA
 6 Afghanistan  1985       NA        NA        NA        NA        NA        NA
 7 Afghanistan  1986       NA        NA        NA        NA        NA        NA
 8 Afghanistan  1987       NA        NA        NA        NA        NA        NA
 9 Afghanistan  1988       NA        NA        NA        NA        NA        NA
10 Afghanistan  1989       NA        NA        NA        NA        NA        NA
# ℹ 7,230 more rows
# ℹ 50 more variables: sp_m_65 <dbl>, sp_f_014 <dbl>, sp_f_1524 <dbl>,
#   sp_f_2534 <dbl>, sp_f_3544 <dbl>, sp_f_4554 <dbl>, sp_f_5564 <dbl>,
#   sp_f_65 <dbl>, sn_m_014 <dbl>, sn_m_1524 <dbl>, sn_m_2534 <dbl>,
#   sn_m_3544 <dbl>, sn_m_4554 <dbl>, sn_m_5564 <dbl>, sn_m_65 <dbl>,
#   sn_f_014 <dbl>, sn_f_1524 <dbl>, sn_f_2534 <dbl>, sn_f_3544 <dbl>,
#   sn_f_4554 <dbl>, sn_f_5564 <dbl>, sn_f_65 <dbl>, ep_m_014 <dbl>, …
…
第二部分为“m/f” ，代表性别；

第三部分为“014/1524/2534/3535/44/4554/5564/65”， 代表年龄范围（例如，014 代表 0-14岁）。

因此，在这种情况下，who2 数据中记录了六条变量信息：国家和年份（已列出）；诊断方法、性别和年龄范围（包含在3-56列的列名中），以及该类别中的患者人数（单元格值）。为了将这六条变量信息转换到六个独立的列中，我们可以通过指定 pivot_longer() 中的 names_sep 参数，按照“_”分隔符将原始变量名分割成若干个字符串：

who2 |> 
  pivot_longer(
    cols = !(country:year),
    names_sep = "_", # 指定原始列名的分隔符
    names_to = c("diagnosis", "gender", "age"), 
    values_to = "count"
  )

# A tibble: 405,440 × 6
   country      year diagnosis gender age   count
   <chr>       <dbl> <chr>     <chr>  <chr> <dbl>
 1 Afghanistan  1980 sp        m      014      NA
 2 Afghanistan  1980 sp        m      1524     NA
 3 Afghanistan  1980 sp        m      2534     NA
 4 Afghanistan  1980 sp        m      3544     NA
 5 Afghanistan  1980 sp        m      4554     NA
 6 Afghanistan  1980 sp        m      5564     NA
 7 Afghanistan  1980 sp        m      65       NA
 8 Afghanistan  1980 sp        f      014      NA
 9 Afghanistan  1980 sp        f      1524     NA
10 Afghanistan  1980 sp        f      2534     NA
# ℹ 405,430 more rows
…
3 pivot_wider()：转换成宽数据

pivot_wider() 可以通过增加列数和减少行数使数据集变宽。例如在重复测量数据中，一般而言我们会将每次观测作为一个个案，这时候一个对象多个时间点的观测数据分布在多行。这样的数据即为长数据，便于进行各种统计分析。但是如果你想了解每个对象的观测情况，就可以通过pivot_wider() 来将一个对象的多次观测结果合并到一行，即转换为宽数据。这种情况的实际应用场景较少，因此下面我们只简单演示了一个转换宽数据的基本语法，相关详细解释参考该链接。

cms_patient_experience

# A tibble: 500 × 5
   org_pac_id org_nm                           measure_cd measure_title prf_rate
   <chr>      <chr>                            <chr>      <chr>            <dbl>
 1 0446157747 USC CARE MEDICAL GROUP INC       CAHPS_GRP… CAHPS for MI…       63
 2 0446157747 USC CARE MEDICAL GROUP INC       CAHPS_GRP… CAHPS for MI…       87
 3 0446157747 USC CARE MEDICAL GROUP INC       CAHPS_GRP… CAHPS for MI…       86
 4 0446157747 USC CARE MEDICAL GROUP INC       CAHPS_GRP… CAHPS for MI…       57
 5 0446157747 USC CARE MEDICAL GROUP INC       CAHPS_GRP… CAHPS for MI…       85
 6 0446157747 USC CARE MEDICAL GROUP INC       CAHPS_GRP… CAHPS for MI…       24
 7 0446162697 ASSOCIATION OF UNIVERSITY PHYSI… CAHPS_GRP… CAHPS for MI…       59
 8 0446162697 ASSOCIATION OF UNIVERSITY PHYSI… CAHPS_GRP… CAHPS for MI…       85
 9 0446162697 ASSOCIATION OF UNIVERSITY PHYSI… CAHPS_GRP… CAHPS for MI…       83
10 0446162697 ASSOCIATION OF UNIVERSITY PHYSI… CAHPS_GRP… CAHPS for MI…       63
# ℹ 490 more rows

cms_patient_experience |> 
  pivot_wider(
    id_cols = starts_with("org"), # 哪一列/几列定义了行的唯一标识
    names_from = measure_cd, # 从哪一列（或哪几列）获取输出列的名称
    values_from = prf_rate # 从哪一列（或哪几列）获取单元格值
  )

# A tibble: 95 × 8
   org_pac_id org_nm CAHPS_GRP_1 CAHPS_GRP_2 CAHPS_GRP_3 CAHPS_GRP_5 CAHPS_GRP_8
   <chr>      <chr>        <dbl>       <dbl>       <dbl>       <dbl>       <dbl>
 1 0446157747 USC C…          63          87          86          57          85
 2 0446162697 ASSOC…          59          85          83          63          88
 3 0547164295 BEAVE…          49          NA          75          44          73
 4 0749333730 CAPE …          67          84          85          65          82
 5 0840104360 ALLIA…          66          87          87          64          87
 6 0840109864 REX H…          73          87          84          67          91
 7 0840513552 SCL H…          58          83          76          58          78
 8 0941545784 GRITM…          46          86          81          54          NA
 9 1052612785 COMMU…          65          84          80          58          87
10 1254237779 OUR L…          61          NA          NA          65          NA
# ℹ 85 more rows
# ℹ 1 more variable: CAHPS_GRP_12 <dbl>
…
