R语言学习笔记：从数据清洗到高级统计学和生物信息学 - 不同类型向量的处理
…
本章按照数据处理中不同的变量类型分别介绍常用的一些函数。这些函数大部分来自base包，但是为了保持一致性和贴合实际场景，本章的语法仍遵循tidyverse风格。

1 加载包和案例数据

library(tidyverse)
library(nycflights13)
library(VIM)

2 逻辑向量（logical vectors）

用 nycflights13 包内“flights”数据集为例，该数据集包含 2013 年从纽约市起飞的所有 336,776 次航班的信息。下面是一个简单的生成逻辑向量的例子，在“flights”中新增两列，判断航班是否在白天起飞（新列命名为“daytime”），是否准时到达（到达延误<20 min，新列命名为“approx_ontime”）：

flights

# A tibble: 336,776 × 19
    year month   day dep_time sched_dep_time dep_delay arr_time sched_arr_time
   <int> <int> <int>    <int>          <int>     <dbl>    <int>          <int>
 1  2013     1     1      517            515         2      830            819
 2  2013     1     1      533            529         4      850            830
 3  2013     1     1      542            540         2      923            850
 4  2013     1     1      544            545        -1     1004           1022
 5  2013     1     1      554            600        -6      812            837
 6  2013     1     1      554            558        -4      740            728
 7  2013     1     1      555            600        -5      913            854
 8  2013     1     1      557            600        -3      709            723
 9  2013     1     1      557            600        -3      838            846
10  2013     1     1      558            600        -2      753            745
# ℹ 336,766 more rows
# ℹ 11 more variables: arr_delay <dbl>, carrier <chr>, flight <int>,
#   tailnum <chr>, origin <chr>, dest <chr>, air_time <dbl>, distance <dbl>,
#   hour <dbl>, minute <dbl>, time_hour <dttm>

flights |> 
  mutate(
    daytime = dep_time > 600 & dep_time < 2000,
    approx_ontime = abs(arr_delay) < 20,
    .keep = "used"
  )

# A tibble: 336,776 × 4
   dep_time arr_delay daytime approx_ontime
      <int>     <dbl> <lgl>   <lgl>        
 1      517        11 FALSE   TRUE         
 2      533        20 FALSE   FALSE        
 3      542        33 FALSE   FALSE        
 4      544       -18 FALSE   TRUE         
 5      554       -25 FALSE   FALSE        
 6      554        12 FALSE   TRUE         
 7      555        19 FALSE   TRUE         
 8      557       -14 FALSE   TRUE         
 9      557        -8 FALSE   TRUE         
10      558         8 FALSE   TRUE         
# ℹ 336,766 more rows
…
any(x)：相当于 |。如果“x”中有任何“TRUE”，则返回“TRUE”。

all(x)：相当于 &。只有当“x”中所有值均为“TRUE”时，才返回“TRUE”。

例如，我们可以使用 all() 和 any() 来判断所有航班的起飞延误是否都在一个小时以内，以及是否有任何航班在到达时延误了五个小时或以上。通过使用 group_by()，我们可以按月来统计：

flights |> 
  group_by(year, month, day) |> 
  summarize(
    all_delayed = all(dep_delay <= 60, na.rm = TRUE),
    any_long_delay = any(arr_delay >= 300, na.rm = TRUE),
    .groups = "drop"
  )

# A tibble: 365 × 5
    year month   day all_delayed any_long_delay
   <int> <int> <int> <lgl>       <lgl>         
 1  2013     1     1 FALSE       TRUE          
 2  2013     1     2 FALSE       TRUE          
 3  2013     1     3 FALSE       FALSE         
 4  2013     1     4 FALSE       FALSE         
 5  2013     1     5 FALSE       TRUE          
 6  2013     1     6 FALSE       FALSE         
 7  2013     1     7 FALSE       TRUE          
 8  2013     1     8 FALSE       FALSE         
 9  2013     1     9 FALSE       TRUE          
10  2013     1    10 FALSE       TRUE          
# ℹ 355 more rows
…
if_else(x <3, "<3", "≥3", missing = "Unknown")

[1] "<3"      "<3"      "≥3"      "Unknown" "≥3"      "≥3"      "Unknown"

在统计分析中 ifelse() 和 if_else() 的一个十分常见的应用场景就是对变量进行赋值或替换已有赋值。例如我们可以根据到达延误时间（“arr_delay”）生成一个新变量“arr_2”，如果到达延误时间在30 min以内，赋值为“undelayed”，否则就为“delayed”：

# 新根据到达延误时间
flights %>%  
  mutate(
    arr_2 = if_else(arr_delay <= 30, "undelayed", "delayed"), 
    .after = dep_delay
  ) 

# A tibble: 336,776 × 20
    year month   day dep_time sched_dep_time dep_delay arr_2     arr_time
   <int> <int> <int>    <int>          <int>     <dbl> <chr>        <int>
 1  2013     1     1      517            515         2 undelayed      830
 2  2013     1     1      533            529         4 undelayed      850
 3  2013     1     1      542            540         2 delayed        923
 4  2013     1     1      544            545        -1 undelayed     1004
 5  2013     1     1      554            600        -6 undelayed      812
 6  2013     1     1      554            558        -4 undelayed      740
 7  2013     1     1      555            600        -5 undelayed      913
 8  2013     1     1      557            600        -3 undelayed      709
 9  2013     1     1      557            600        -3 undelayed      838
10  2013     1     1      558            600        -2 undelayed      753
# ℹ 336,766 more rows
# ℹ 12 more variables: sched_arr_time <int>, arr_delay <dbl>, carrier <chr>,
#   flight <int>, tailnum <chr>, origin <chr>, dest <chr>, air_time <dbl>,
#   distance <dbl>, hour <dbl>, minute <dbl>, time_hour <dttm>
…
is.na(c(1, NA, 3))

[1] FALSE  TRUE FALSE

is.na(c("a", NA, "b"))

[1] FALSE  TRUE FALSE

我们可以使用 is.na() 查找缺失了“dep_time”的所有行：

flights |> 
  filter(is.na(dep_time))

# A tibble: 8,255 × 19
    year month   day dep_time sched_dep_time dep_delay arr_time sched_arr_time
   <int> <int> <int>    <int>          <int>     <dbl>    <int>          <int>
 1  2013     1     1       NA           1630        NA       NA           1815
 2  2013     1     1       NA           1935        NA       NA           2240
 3  2013     1     1       NA           1500        NA       NA           1825
 4  2013     1     1       NA            600        NA       NA            901
 5  2013     1     2       NA           1540        NA       NA           1747
 6  2013     1     2       NA           1620        NA       NA           1746
 7  2013     1     2       NA           1355        NA       NA           1459
 8  2013     1     2       NA           1420        NA       NA           1644
 9  2013     1     2       NA           1321        NA       NA           1536
10  2013     1     2       NA           1545        NA       NA           1910
# ℹ 8,245 more rows
# ℹ 11 more variables: arr_delay <dbl>, carrier <chr>, flight <int>,
#   tailnum <chr>, origin <chr>, dest <chr>, air_time <dbl>, distance <dbl>,
#   hour <dbl>, minute <dbl>, time_hour <dttm>

is.na() 在 arrange() 中也很有用。用 arrange() 基于某列排序时默认会将该列的所有缺失值放在最后，但可以先用 is.na() 进行降序排序，从而让缺失值在最前面显示：

# 按照“dep_time”排序
flights |> 
  filter(month == 1, day == 1) |> 
  arrange(dep_time)

# A tibble: 842 × 19
    year month   day dep_time sched_dep_time dep_delay arr_time sched_arr_time
   <int> <int> <int>    <int>          <int>     <dbl>    <int>          <int>
 1  2013     1     1      517            515         2      830            819
 2  2013     1     1      533            529         4      850            830
 3  2013     1     1      542            540         2      923            850
 4  2013     1     1      544            545        -1     1004           1022
 5  2013     1     1      554            600        -6      812            837
 6  2013     1     1      554            558        -4      740            728
 7  2013     1     1      555            600        -5      913            854
 8  2013     1     1      557            600        -3      709            723
 9  2013     1     1      557            600        -3      838            846
10  2013     1     1      558            600        -2      753            745
# ℹ 832 more rows
# ℹ 11 more variables: arr_delay <dbl>, carrier <chr>, flight <int>,
#   tailnum <chr>, origin <chr>, dest <chr>, air_time <dbl>, distance <dbl>,
#   hour <dbl>, minute <dbl>, time_hour <dttm>

# 按照“dep_time”排序，同时将缺失值放到最前面
flights |> 
  filter(month == 1, day == 1) |> 
  arrange(desc(is.na(dep_time)), dep_time)

# A tibble: 842 × 19
    year month   day dep_time sched_dep_time dep_delay arr_time sched_arr_time
   <int> <int> <int>    <int>          <int>     <dbl>    <int>          <int>
 1  2013     1     1       NA           1630        NA       NA           1815
 2  2013     1     1       NA           1935        NA       NA           2240
 3  2013     1     1       NA           1500        NA       NA           1825
 4  2013     1     1       NA            600        NA       NA            901
 5  2013     1     1      517            515         2      830            819
 6  2013     1     1      533            529         4      850            830
 7  2013     1     1      542            540         2      923            850
 8  2013     1     1      544            545        -1     1004           1022
 9  2013     1     1      554            600        -6      812            837
10  2013     1     1      554            558        -4      740            728
# ℹ 832 more rows
# ℹ 11 more variables: arr_delay <dbl>, carrier <chr>, flight <int>,
#   tailnum <chr>, origin <chr>, dest <chr>, air_time <dbl>, distance <dbl>,
#   hour <dbl>, minute <dbl>, time_hour <dttm>

2.4.2 删除缺失值

# 删除缺失“dep_time”的所有行
flights %>% 
  filter(is.na(dep_time) == FALSE) 

# A tibble: 328,521 × 19
    year month   day dep_time sched_dep_time dep_delay arr_time sched_arr_time
   <int> <int> <int>    <int>          <int>     <dbl>    <int>          <int>
 1  2013     1     1      517            515         2      830            819
 2  2013     1     1      533            529         4      850            830
 3  2013     1     1      542            540         2      923            850
 4  2013     1     1      544            545        -1     1004           1022
 5  2013     1     1      554            600        -6      812            837
 6  2013     1     1      554            558        -4      740            728
 7  2013     1     1      555            600        -5      913            854
 8  2013     1     1      557            600        -3      709            723
 9  2013     1     1      557            600        -3      838            846
10  2013     1     1      558            600        -2      753            745
# ℹ 328,511 more rows
# ℹ 11 more variables: arr_delay <dbl>, carrier <chr>, flight <int>,
#   tailnum <chr>, origin <chr>, dest <chr>, air_time <dbl>, distance <dbl>,
#   hour <dbl>, minute <dbl>, time_hour <dttm>

# 删除flights数据集中包含缺失值的所有行
flights %>% 
  na.omit()

# A tibble: 327,346 × 19
    year month   day dep_time sched_dep_time dep_delay arr_time sched_arr_time
   <int> <int> <int>    <int>          <int>     <dbl>    <int>          <int>
 1  2013     1     1      517            515         2      830            819
 2  2013     1     1      533            529         4      850            830
 3  2013     1     1      542            540         2      923            850
 4  2013     1     1      544            545        -1     1004           1022
 5  2013     1     1      554            600        -6      812            837
 6  2013     1     1      554            558        -4      740            728
 7  2013     1     1      555            600        -5      913            854
 8  2013     1     1      557            600        -3      709            723
 9  2013     1     1      557            600        -3      838            846
10  2013     1     1      558            600        -2      753            745
# ℹ 327,336 more rows
# ℹ 11 more variables: arr_delay <dbl>, carrier <chr>, flight <int>,
#   tailnum <chr>, origin <chr>, dest <chr>, air_time <dbl>, distance <dbl>,
#   hour <dbl>, minute <dbl>, time_hour <dttm>
…
   BodyWgt BrainWgt NonD Dream Sleep Span Gest Pred Exp Danger
1 6654.000   5712.0   NA    NA   3.3 38.6  645    3   5      3
2    1.000      6.6  6.3   2.0   8.3  4.5   42    3   1      3
3    3.385     44.5   NA    NA  12.5 14.0   60    1   1      1
4    0.920      5.7   NA    NA  16.5   NA   25    5   2      3
5 2547.000   4603.0  2.1   1.8   3.9 69.0  624    3   5      4
6   10.550    179.5  9.1   0.7   9.8 27.0  180    4   4      4

# 为了和其他内容一致，我们将其转换成tibble
sleep <- as_tibble(sleep)
sleep

# A tibble: 62 × 10
    BodyWgt BrainWgt  NonD Dream Sleep  Span  Gest  Pred   Exp Danger
      <dbl>    <dbl> <dbl> <dbl> <dbl> <dbl> <dbl> <int> <int>  <int>
 1 6654       5712    NA    NA     3.3  38.6   645     3     5      3
 2    1          6.6   6.3   2     8.3   4.5    42     3     1      3
 3    3.38      44.5  NA    NA    12.5  14      60     1     1      1
 4    0.92       5.7  NA    NA    16.5  NA      25     5     2      3
 5 2547       4603     2.1   1.8   3.9  69     624     3     5      4
 6   10.6      180.    9.1   0.7   9.8  27     180     4     4      4
 7    0.023      0.3  15.8   3.9  19.7  19      35     1     1      1
 8  160        169     5.2   1     6.2  30.4   392     4     5      4
 9    3.3       25.6  10.9   3.6  14.5  28      63     1     2      1
10   52.2      440     8.3   1.4   9.7  50     230     1     1      1
# ℹ 52 more rows
…
[1] "1 234.56"

[1] 1234.56

3.2 计数

只需使用计数和一些基本算术，就能完成大量数据科学工作，因此 dplyr 努力通过 count() 使计数变得尽可能简单。这个函数非常适合在分析过程中进行快速探索和检查：

# 统计各个目的地的航班数
flights |> count(dest, sort = TRUE)

# A tibble: 105 × 2
   dest      n
   <chr> <int>
 1 ORD   17283
 2 ATL   17215
 3 LAX   16174
 4 BOS   15508
 5 MCO   14082
 6 CLT   14064
 7 SFO   13331
 8 FLL   12055
 9 MIA   11728
10 DCA    9705
# ℹ 95 more rows
…
table(flights$dest) %>% head()

  ABQ   ACK   ALB   ANC   ATL   AUS 
  254   265   439     8 17215  2439 

可以使用 group_by()、summarize() 和 n() “手动”执行相同的计算。这在需要同时计算其他数据摘要时十分有用。例如，我们除了要统计各个目的地的航班数之外还需要统计到的各个目的地航班的平均延误时间：

flights |> 
  group_by(dest) |> 
  summarize(
    n = n(),
    delay = mean(arr_delay, na.rm = TRUE)
  )

# A tibble: 105 × 3
   dest      n delay
   <chr> <int> <dbl>
 1 ABQ     254  4.38
 2 ACK     265  4.85
 3 ALB     439 14.4 
 4 ANC       8 -2.5 
 5 ATL   17215 11.3 
 6 AUS    2439  6.02
 7 AVL     275  8.00
 8 BDL     443  7.05
 9 BGR     375  8.03
10 BHM     297 16.9 
# ℹ 95 more rows
…
n() 是一个特殊的摘要函数，不需要任何参数，而是访问 “当前” group 的信息。这意味着它只能在 dplyr 语句，如summarize() 、 mutate() 、 filter() 和 group_by() 等函数的内部使用。

3.2.1 n() 和 count() 的变体

计数唯一值

n_distinct() 计算一个或多个变量的唯一值的数量。例如，我们可以推荐每个目的地有多少家航空公司提供服务：

flights |> 
  group_by(dest) |> 
  summarize(carriers = n_distinct(carrier)) |> 
  arrange(desc(carriers))

# A tibble: 105 × 2
   dest  carriers
   <chr>    <int>
 1 ATL          7
 2 BOS          7
 3 CLT          7
 4 ORD          7
 5 TPA          7
 6 AUS          6
 7 DCA          6
 8 DTW          6
 9 IAD          6
10 MSP          6
# ℹ 95 more rows
…
练习：查找由至少两家航空公司（“carrier”）运营的目的地（“dest”），并在每个目的地中挑选最优的一家航空公司，挑选标准为平均出发延误时间（“dep_delay”）和到达延误时间（“arr_delay”）最短的公司：

flights %>% 
  group_by(dest) %>% 
  mutate(
    carrier_count = n_distinct(carrier)
  ) %>% 
  filter(carrier_count >= 2) %>% 
  group_by(dest, carrier) %>% 
  summarise(
    mean_delay = mean(arr_delay, na.rm = T) + mean(dep_delay, na.rm = T)
  ) %>% 
  slice_min(mean_delay, n = 1) 

# A tibble: 76 × 3
# Groups:   dest [76]
   dest  carrier mean_delay
   <chr> <chr>        <dbl>
 1 ATL   9E            1.82
 2 AUS   WN           -7.40
 3 AVL   9E          -14.7 
 4 BDL   EV           24.4 
 5 BGR   EV           27.5 
 6 BNA   DL          -31   
 7 BOS   US           -2.96
 8 BQN   B6           13.6 
 9 BTV   9E           -7   
10 BUF   DL          -14   
# ℹ 66 more rows

加权计数

加权计数是分组计算总和（sum()）。例如，统计每个航线飞机飞行的总里程数：

flights |> 
  group_by(tailnum) |> 
  summarize(miles = sum(distance))

# A tibble: 4,044 × 2
   tailnum  miles
   <chr>    <dbl>
 1 D942DN    3418
 2 N0EGMQ  250866
 3 N10156  115966
 4 N102UW   25722
 5 N103US   24619
 6 N104UW   25157
 7 N10575  150194
 8 N105UW   23618
 9 N107US   21677
10 N108UW   32070
# ℹ 4,034 more rows

加权计数经常使用，因此 count() 有一个 wt 参数，可以实现同样的目的：

# 统计每个航线飞行的次数
flights %>% count(tailnum)

# A tibble: 4,044 × 2
   tailnum     n
   <chr>   <int>
 1 D942DN      4
 2 N0EGMQ    371
 3 N10156    153
 4 N102UW     48
 5 N103US     46
 6 N104UW     47
 7 N10575    289
 8 N105UW     45
 9 N107US     41
10 N108UW     60
# ℹ 4,034 more rows

# 统计每个航线飞行的总里程数
flights |> count(tailnum, wt = distance)

# A tibble: 4,044 × 2
   tailnum      n
   <chr>    <dbl>
 1 D942DN    3418
 2 N0EGMQ  250866
 3 N10156  115966
 4 N102UW   25722
 5 N103US   24619
 6 N104UW   25157
 7 N10575  150194
 8 N105UW   23618
 9 N107US   21677
10 N108UW   32070
# ℹ 4,034 more rows

实际上如果指定了 wt 参数，就是对其分组进行 sum(wt) 操作。理解加权计数的作用的另一个很好的例子参考后面的章节。

计数缺失值

结合 sum() 和 is.na() 可以计数缺失值。例如统计每个目的地取消的航班数：

flights |> 
  group_by(dest) |> 
  summarize(n_cancelled = sum(is.na(dep_time)))

# A tibble: 105 × 2
   dest  n_cancelled
   <chr>       <int>
 1 ABQ             0
 2 ACK             0
 3 ALB            20
 4 ANC             0
 5 ATL           317
 6 AUS            21
 7 AVL            12
 8 BDL            31
 9 BGR            15
10 BHM            25
# ℹ 95 more rows
…
